<svg xmlns="http://www.w3.org/2000/svg" width="70" height="69.997" viewBox="0 0 70 69.997">
  <path id="Path_8" data-name="Path 8" d="M160.971,329.334a9.523,9.523,0,0,1,8.544-4.931c3.768-.044,5.658-1.956,5.724-5.724a9.47,9.47,0,0,1,4.9-8.522c3.25-1.912,3.939-4.517,2.11-7.812a9.4,9.4,0,0,1,0-9.833c1.829-3.289,1.14-5.873-2.11-7.812a9.468,9.468,0,0,1-4.9-8.544c-.066-3.741-1.956-5.658-5.724-5.7a9.549,9.549,0,0,1-8.544-4.925q-2.876-4.875-7.79-2.088a9.537,9.537,0,0,1-9.856,0q-4.909-2.777-7.812,2.088a9.491,9.491,0,0,1-8.522,4.925c-3.746.044-5.658,1.961-5.724,5.7a9.472,9.472,0,0,1-4.908,8.544c-3.245,1.939-3.961,4.523-2.11,7.812a9.4,9.4,0,0,1,0,9.833c-1.851,3.294-1.135,5.9,2.11,7.812a9.475,9.475,0,0,1,4.908,8.522q.1,5.652,5.724,5.724a9.508,9.508,0,0,1,8.539,4.931c1.923,3.228,4.523,3.939,7.8,2.088a9.636,9.636,0,0,1,9.856,0c3.272,1.851,5.873,1.14,7.79-2.088Z" transform="translate(-113.247 -262.43)" fill="#c3ab7d" fill-rule="evenodd"/>
</svg>
